('/home/prasad/Desktop/intermediate/Creating Executable Code/Using PyInstaller/build/my_python_code/my_python_code',
 True,
 False,
 True,
 None,
 None,
 False,
 False,
 None,
 True,
 'my_python_code.pkg',
 [('out00-PYZ.pyz',
   '/home/prasad/Desktop/intermediate/Creating Executable Code/Using PyInstaller/build/my_python_code/out00-PYZ.pyz',
   'PYZ'),
  ('struct', '/usr/lib/python2.7/struct.pyc', 'PYMODULE'),
  ('pyimod01_os_path',
   '/usr/local/lib/python2.7/dist-packages/PyInstaller/loader/pyimod01_os_path.pyc',
   'PYMODULE'),
  ('pyimod02_archive',
   '/usr/local/lib/python2.7/dist-packages/PyInstaller/loader/pyimod02_archive.pyc',
   'PYMODULE'),
  ('pyimod03_importers',
   '/usr/local/lib/python2.7/dist-packages/PyInstaller/loader/pyimod03_importers.pyc',
   'PYMODULE'),
  ('pyiboot01_bootstrap',
   '/usr/local/lib/python2.7/dist-packages/PyInstaller/loader/pyiboot01_bootstrap.py',
   'PYSOURCE'),
  ('my_python_code',
   '/home/prasad/Desktop/intermediate/Creating Executable Code/Using PyInstaller/my_python_code.py',
   'PYSOURCE')],
 [],
 False,
 False,
 1517290112,
 [('run',
   '/usr/local/lib/python2.7/dist-packages/PyInstaller/bootloader/Linux-64bit/run',
   'EXECUTABLE')])
